[
  {
  "created_by": "RyuChan",
  "description": "",
  "favorite_count": 0,
  "id": 8556173,
  "iso_639_1": "zh",
  "item_count": 86,
  "items": [
    {
      "adult": false,
      "backdrop_path": "/8x9iKH8kWA0zdkgNdpAew7OstYe.jpg",
      "id": 372058,
      "title": "你的名字。",
      "original_title": "君の名は。",
      "overview": "在远离大都会的小山村，住着巫女世家出身的高中女孩宫水三叶（上白石萌音 配音）。校园和家庭的原因本就让她充满烦恼，而近一段时间发生的奇怪事件，又让三叶摸不清头脑。不知从何时起，三叶在梦中就会变成一个住在东京的高中男孩。那里有陌生的同学和朋友，有亲切的前辈和繁华的街道，一切都是如此诱人而真实。另一方面，住在东京的高中男孩立花泷（神木隆之介 配音）则总在梦里来到陌生的小山村，以女孩子的身份过着全新的生活。许是受那颗神秘彗星的影响，泷和三叶在梦中交换了身份。他们以他者的角度体验着对方的人生，这期间有愤怒、有欢笑也有暖心。只是两人并不知道，身份交换的背后隐藏着重大而锥心的秘密……",
      "poster_path": "/re9VGdZlwTrzo9G5mQ0Ywtus6uU.jpg",
      "media_type": "movie",
      "original_language": "ja",
      "genre_ids": [16, 10749, 18],
      "popularity": 12.1178,
      "release_date": "2016-08-26",
      "video": false,
      "vote_average": 8.5,
      "vote_count": 11960
    }
  ],
  "name": "番剧",
  "page": 5,
  "poster_path": null,
  "total_pages": 5,
  "total_results": 86
}  
]
